빠리하노이(대학로본점) 
 
프랑스 르 꼬르동 블루 요리학교 출신의 셰프가 직접 운영하는 베트남쌀국수 전문점 
 
대학로/혜화역 | 세계요리(베트남쌀국수 전문점) 
 
전화번호 02-3673-1999 
 
주소 서울 종로구 명륜동4가 83-1 
 
영업시간 11:00 ~ 23:00 
 
휴무 연중무휴 
 
주차 불가능 
 
메뉴 베트남쌀국수9,000원, 비빔국수10,000원, 만두세트10,000원, 월남쌈35,000원 
 
찾아가는길 혜화역 3번출구로 나와 4번출구 방향으로 100m직진 커핀그루나루 앞에서 좌측골목으로 직진 100m앞 위치 
