하루캠프 
 
도시속 이색적인 캠프를 즐길수있는 감성캠핑공간 하루캠프 
 
광진/건대입구역 | 주점(도심속 캠핑장) 
 
전화번호 02-497-7671 
 
주소 서울 광진구 화양동 9-6번지 4층 
 
영업시간 17:00 ~ 03:00 
 
휴무 연중무휴 
 
주차 불가 
 
메뉴 BBQ모듬(S) 25,000원, 비어치킨 15,000원, 캠핑라면 7,000원, 모듬꼬치BBQ 15,000원 
 
찾아가는길 건대맛의 거리 내 위치(지도보기 참조) 
