마싸지 받은 족발 
 
족발 마싸지를 통한 쫄깃하고 단백하며 느끼하지 않고 질리지않는 족발 
 
역삼역 | 한식(족발 전문점) 
 
전화번호 010-7355-5898 
 
주소 서울 강남구 역삼동 646-4 1층 
 
영업시간 평일11:00~23:30, 주말12:00~23:00(라스트오더 22:00) 
 
휴무 연중무휴 
 
주차 불가 
 
메뉴 마족大 37,000원,中 32,000원, 마온족大 37,000원,中 32,000원, 보쌈大 37,000원,中32,000원, 마불족 38,000원 
 
찾아가는길 역삼역(2호선) 4번출구 하차, 강남역 방면으로 약 50m내려오면 현대해상뒷편 먹자골목에 위치 
