미즈컨테이너(강남점) 
 
샐러드 스파게티가 인기인 이탈리안 레스토랑 
 
강남역 | 양식(파스타 전문점) 
 
전화번호 02-536-5786 
 
주소 서울 서초구 서초동 1316-29 
 
영업시간 11:00~24:00(일~목), 11:00~새벽02:00(금,토) 
 
휴무 한달에 한번(매장내 공지) 
 
주차 가능 
 
메뉴 샐러드스파게티 12,500원, 불고기 크림 치즈 10,500원, 베이컨포테이토피자 12,000원, 체리에이드 5,000원 
 
찾아가는길 강남역 9번출구로 나와서 두번째 우회전길로 들어가 30m 전방 좌측 위치 
