타지팰리스 
 
탄두리치킨과 버터치킨커리가 유명한 정통 인도 커리 전문점 
 
이태원/한남동 | 양식(카레전문점) 
 
전화번호 02-790-5786 
 
주소 서울 용산구 이태원동 132-2 2층 
 
영업시간 11:00 ~ 22:00 
 
휴무 연중무휴 
 
주차 불가 
 
메뉴 탄두리치킨(하프) 10,000원, 버터치킨커리 12,000원, 사그고스토양고기커리 13,000원 
 
찾아가는길 이태원역 3번출구로 나와서 소방서 골목으로 들어가서 50m 전방 우측 
